<svg width="18" height="18" viewBox="0 0 18 18" fill="none" xmlns="http://www.w3.org/2000/svg">
<path d="M14.25 2.25H3.75C2.925 2.25 2.2575 2.925 2.2575 3.75L2.25 14.25C2.25 15.075 2.925 15.75 3.75 15.75H14.25C15.075 15.75 15.75 15.075 15.75 14.25V3.75C15.75 2.925 15.075 2.25 14.25 2.25ZM13.5 10.5H10.5V13.5H7.5V10.5H4.5V7.5H7.5V4.5H10.5V7.5H13.5V10.5Z" fill="#C14950"/>
</svg>
